-5.1496673 5.6446110 -4.8382291 -3.0871743
-1.9112687 -2.3747920 -7.3838774 -0.3666642
2.6706668 5.4084941 -3.2698533 4.9984072
-4.2161912 -7.8320261 2.6524802 -6.9983526
2.0730093 -3.0595304 8.5070458 -0.8785557
-9.8168780 8.6383083 -1.4900872 -8.6247808
7.1115098 -7.6317143 -6.9568835 8.3791681
-6.3791210 5.2407314 -0.9614731 -5.6810274
9.2866795 -0.4327021 3.1328829 9.1908402
-3.7876747 -7.3132688 -3.6798952 -4.5273568
-8.6533546 -9.4450220 -8.4186984 -8.8871853
-4.3813879 9.6698786 -8.1539969 -0.4442919
8.2143785 7.0357368 6.3057102 8.5550709
-4.9759791 5.9376390 2.7883575 -5.1208672
9.8674701 -9.8776143 8.0887450 6.4569713
0.7370089 -7.8330430 1.7761985 -1.2876823
9.6395705 -0.3759928 -0.1093157 10.5610574
1.1765874 -6.0823238 -8.4173572 2.5978889
1.5567915 7.6495710 -2.8327016 4.0904791
8.6145042 7.9453075 8.6197073 8.4843261
-4.5360576 -7.3017997 4.3655664 -7.7570484
5.8505664 7.0548359 2.7718810 7.0167052
-1.5002365 -7.0545051 -7.7818455 -0.7313221
-6.7075221 -5.9221811 -4.9754296 -7.0730960
4.7083152 7.6899589 -3.1569935 7.6623240
-1.3983257 3.9286859 4.5899246 -2.1266176
7.3279675 0.6457989 -0.7759146 8.4222284
-2.9929118 6.3800197 -6.6239274 -0.0330339
9.6680214 8.9597600 -6.5034315 14.3738649
-7.4416660 3.4349825 3.8943225 -8.6647734
-5.3487854 -3.5140224 -4.9356441 -5.1087655
5.9383182 9.5989652 -4.6329050 9.8390077
-9.3712894 8.8914550 -4.9107064 -7.0598905
3.0564251 -4.2958610 -0.6555189 2.6991539
4.7953503 7.3974066 6.9101989 4.6854935
-8.4659242 -7.2011259 -6.1290182 -8.9177496
8.6930953 9.6945097 -4.2906808 12.7859115
0.7453381 5.3069998 4.6194443 0.4982373
-0.1749309 8.8016995 4.6687966 0.1701055
9.6657871 -0.9849977 8.0234077 8.0332049
-2.0371203 -5.8744013 3.2899610 -4.4007077
2.9012981 3.5703644 -6.6728472 5.9033122
-6.6055793 -6.1674369 6.6520806 -10.4912186
0.7779192 3.7016599 6.3929549 -0.3179702
7.9547850 -2.9273962 -9.7476882 11.0831852
0.8580397 6.0239224 -8.6545690 4.7397556
5.6807633 9.2463239 6.5340313 6.1418536
-4.9014016 4.2951637 -6.1127616 -2.7023840
-2.2677400 9.8865992 9.5772171 -3.3845570
-3.5000058 0.9063733 6.5948703 -5.6431973
-4.6646934 7.8758847 -3.3795184 -2.5441777
-5.4096322 -3.8883263 -9.2847216 -3.9484693
8.4166509 4.0000933 2.6873839 9.2537476
-7.9232607 -8.6175284 7.4517392 -12.6700996
-1.1891682 0.1031296 0.2837717 -1.3724187
-8.6607826 -1.5003070 9.7779715 -12.7543898
-4.4229172 -4.9121340 3.4005187 -6.8657311
-2.8107108 -4.7622486 -8.9302559 -1.3705651
0.6347394 6.3889848 7.5801637 -0.2934464
3.7686806 -0.4977713 2.3908216 3.3301963
-0.9932709 5.6855644 -7.8569373 2.3968360
2.8357397 3.0182190 8.2069660 1.2658397
4.5205394 -3.5900285 2.8729878 3.3944319
-7.5333431 0.7326174 9.2068998 -10.8966459
0.2498467 -4.8908645 0.7773335 -0.9360707
-2.2800686 2.4419782 1.5855945 -2.4943975
9.7634398 0.5538758 5.5282243 9.1954409
7.6959844 5.2866835 1.9770086 8.9310147
-3.8784990 9.7056762 -0.3751828 -2.2128861
4.0615514 6.7502088 -7.9069174 8.1850332
6.7949135 3.6204748 -4.9241377 9.6727578
-5.3489761 6.2044765 7.2369578 -6.8096813
9.7299136 0.8089405 9.2701381 8.0892679
4.2094520 -6.4994090 -7.3559766 5.5328518
-5.9252982 1.1349412 -5.4723168 -4.6524601
-1.0093908 0.4292691 -5.2346567 0.5427496
5.8469756 -6.9810425 -7.7454077 7.3543945
2.9214270 0.9941126 -9.3983288 6.2261969
8.3990124 -6.8576728 7.6312705 5.5826212
-5.7981949 -6.5519505 7.3386814 -9.8855628
8.4830752 4.2338137 1.1409169 9.8365616
-5.7581775 -7.0858864 -9.1043580 -5.0253809
-7.6605405 -6.2977145 -6.4854171 -7.7444415
-9.9577481 -8.7393848 0.4404311 -12.8332623
-0.7738174 -2.4119516 -9.0938078 1.3890435
-9.4039903 6.8255013 1.9373300 -9.5593143
7.3567139 8.3910075 3.5347069 8.7123162
4.2973191 -7.5659458 0.9548205 2.9279942
6.3565973 -6.2129834 -2.3256821 6.4459560
-8.1411905 -8.7657635 4.4901188 -12.0527776
7.9548214 -4.2127401 -3.6135060 8.9896181
-5.1206275 8.8681069 1.7926527 -4.3957786
5.1023430 5.7233757 -4.4727283 8.0963611
5.6607675 5.3286873 1.0066293 6.9912028
-7.2349460 -3.7027633 -1.8266392 -8.1521082
9.6488399 -3.6721555 3.5256242 8.8237415
-8.0468371 -9.9270017 4.6667049 -12.2341054
9.8917028 -0.8591187 5.0319365 9.2025170
8.3199859 -9.9298338 6.3473947 5.2656448
-4.4210459 -3.4115204 4.8438899 -6.9956869
-2.4162119 6.6818228 -3.3718511 -0.3119560
8.0587877 -9.0784559 -1.3429832 7.4510566
7.9377357 -2.2013190 -4.6265490 9.6764072
