0.0557951 9.2455026 -8.7283572 4.1700557
-5.8275652 -4.3928560 -8.4184269 -14.8599994
-3.1348490 -2.6012182 0.7097286 -6.2010678
8.1651746 1.4537305 8.5058607 15.8144536
8.7369300 8.3413006 -3.8730101 17.4384637
-8.2492328 -3.1661902 5.2083564 -12.1100519
1.9188909 -3.5380699 8.7990277 3.1872060
1.5143316 -2.0585022 6.8847900 3.0797678
-6.3655229 7.0689712 -5.2094175 -5.2287829
-0.9359934 9.6167481 -7.2658227 3.6322477
-2.6411455 4.3480893 9.7459826 3.4705890
-4.6860982 -2.3038807 8.6625036 -5.1241140
-4.2816955 9.9539250 9.0731389 5.4037563
3.0133031 1.6704242 -5.0437525 3.6454548
7.9452124 8.8191727 6.3315603 20.5756943
-3.9800515 -3.6653023 -3.8210746 -9.9509304
4.3678865 -8.8832692 1.3314249 -0.4875116
-5.5997856 5.4063978 -5.4798905 -5.5892076
9.2210111 3.6133924 -9.6385606 12.1510770
0.6831581 3.7251688 -7.5603615 1.0742872
8.8029336 6.4390328 8.3950509 20.6536067
-7.1582250 -7.5950549 -2.6327932 -17.0943054
0.9796559 -8.1524383 8.6506400 -1.8753957
-4.3829736 -6.8716317 -2.7450379 -12.6727093
9.3892203 -4.4127970 7.9252233 12.6150727
-1.3410886 8.1168712 5.9502096 6.8686565
-4.8047682 6.8828307 3.0097370 -0.0809579
3.5742522 -9.0278114 -0.0555983 -2.2393450
2.8563163 -6.7279871 2.9620950 -0.2621305
6.3173577 -9.4936985 0.5807353 1.4692019
5.9326527 7.5062416 6.4071158 16.7363702
-5.5487120 -1.1058085 -0.9406730 -9.0089721
1.5460943 -1.9939000 -3.5217240 -0.7638737
-6.2339945 -0.6393884 -7.7704976 -12.1809274
8.2205348 2.9141099 -9.0671732 10.4073052
5.2638424 4.0053192 6.3058219 12.9609492
6.2734280 8.6485805 -8.7423639 12.3919013
8.5514314 -2.6502472 2.9815432 10.9805855
3.1657059 -9.0873943 -9.4936551 -6.4321199
-6.9603387 7.1266973 -6.4363720 -6.4798557
-7.4395287 -3.8162246 -3.6042278 -14.8328406
3.2513614 8.9072608 -7.6016981 8.7997957
-9.4706049 -3.9775216 9.3531910 -12.8998494
3.8459943 -7.5316421 8.3694607 2.5276636
5.2612766 0.5817319 2.5509305 8.7969268
-8.2631081 9.8690920 8.1686623 -0.5805125
-6.0308103 -6.0376879 2.4486875 -12.3462388
-2.9787115 -6.9165061 5.5113090 -7.6168803
-6.4797948 4.4169168 2.0186610 -4.7739366
-6.2702594 4.5250870 7.1189039 -2.4631553
5.6818606 -3.1206120 4.3827299 7.1173683
9.3272042 -2.9550222 7.8650263 13.6716800
3.1854777 -5.7358270 -5.3073743 -2.1383060
-6.6204808 2.7987326 5.4171565 -4.9788116
-1.1461211 3.9862103 -6.1979178 -0.7620644
0.4442493 2.1584744 -9.9715165 -1.4263774
-2.7281885 -0.5263716 3.8698548 -2.7754770
7.8880390 6.6319330 5.6371740 18.4829728
-5.4899631 -5.4672565 -1.4635704 -12.6138452
0.1455181 9.4398575 -0.6091514 7.5249933
-8.1672393 -9.0209014 9.5224634 -15.0457568
-9.0887665 -6.2512490 2.1426859 -16.9140751
5.7582439 -7.5841366 0.1133278 2.0371369
-6.8321015 7.0708029 -2.3773403 -4.8083345
-8.0265942 -0.1721561 -6.8805816 -13.9798689
-8.0044664 2.8961232 9.0430040 -5.4657731
9.6096812 -5.5547725 9.2549170 12.5135448
3.5554182 2.6424003 -6.3422999 4.6903811
-8.2071887 7.1806029 3.3244128 -4.4869959
6.8362903 -1.3051640 4.1490294 10.0974519
-4.7572326 7.1905858 5.5870140 1.2075247
-0.4304726 -3.5137630 5.0750330 -1.4923207
-7.3795174 -5.8035962 9.3972914 -11.4164908
-5.6661811 3.8170335 -6.9446747 -7.5082038
9.0456808 8.3928529 0.1671654 19.4415224
2.6948087 5.0876264 -4.1592615 6.2681829
9.9427656 -3.0778777 9.8077906 15.1706907
7.1612867 1.3214705 4.3470981 12.7287411
3.3000810 3.7065616 7.2046474 10.3129625
-6.4272358 9.1670862 -1.8994525 -2.3835728
-2.4594612 6.4210577 2.3586486 2.5865587
9.8611616 -5.7787293 3.1217943 10.3645196
8.0043635 -5.1551366 7.9417768 10.0886685
5.8071158 -0.4242309 5.9747607 10.0525558
-8.6666180 2.9550858 0.6314528 -9.5301356
-4.5688795 3.6734841 -0.1644739 -3.5199120
-7.9091722 -5.2737048 -0.2886634 -15.4010897
-3.6948938 7.1354371 8.9955579 3.9411170
5.4434042 3.0640232 -3.5208227 8.7390399
-9.7289589 3.1998268 -5.6049691 -13.1826604
-2.2926643 -1.9741473 -8.8533615 -8.1408326
5.6909016 3.2794040 -5.4152279 8.5406400
6.5634387 -0.5294683 -2.6924997 7.7458890
-8.7348490 4.6099514 5.8150832 -6.3393014
-9.0993414 -3.6315912 1.3735394 -15.1243441
5.9856433 8.7356698 3.1937647 16.5775604
-2.6342513 -1.4376187 4.4075977 -3.1693790
-8.5595824 1.3245287 8.3662399 -7.7564265
-3.1555818 -1.4346958 -9.6618602 -9.2234445
8.6669044 -8.1735203 4.4179305 7.2674295
1.8485014 -5.7696008 -3.5791890 -3.3828200
0.9424350 -2.8449460 -6.3027447 -3.3426972
-0.4567924 -9.9894412 -7.2582428 -11.3789528
-4.9275812 -1.3080642 -6.8340858 -10.5323743
-9.7018213 2.4549871 3.0405795 -10.4674304
-8.0781203 4.5792828 -8.2038922 -10.7518451
-3.8503800 8.8160153 1.4314725 2.2042199
5.0379553 -1.4000707 8.9326983 9.3149017
-1.9293266 0.6396061 2.9453256 -1.0743047
-1.8803312 1.3278939 0.4643968 -1.3943330
-5.6876112 -6.7005263 -0.1890101 -13.3946339
-0.3225454 -8.4019415 2.0388424 -6.4012336
5.4098247 -7.3629678 3.0406863 2.8345506
3.4990017 -9.4336326 9.1828765 0.8282318
3.9090575 9.2766946 0.6953032 13.1572702
-0.4969135 0.8939325 -2.9516625 -1.0979997
6.8132014 8.7193877 8.8140924 19.8509100
3.6987559 8.0021845 3.9656718 13.0813653
-3.8246523 -7.6942373 -8.1660897 -14.6014942
5.3992679 -3.4236866 -6.2324780 2.4604785
9.0762585 3.4422698 5.7127542 17.6233633
2.7386839 -6.3662199 -7.5062157 -4.1005888
-9.0863862 -7.5789723 -8.6149384 -22.0456390
6.8432981 5.4919148 -0.2742009 13.8703397
-2.4372814 9.8637464 1.2608072 4.9561307
-0.8781039 8.4332164 -0.4012412 5.3653223
4.2193289 -9.9761878 -1.5827021 -2.6730832
1.2252480 -2.0871356 -3.8162634 -1.3991563
3.3076256 -1.2948313 -1.9817261 2.8445513
1.4479171 1.8617172 8.4671449 6.7220251
7.6962703 -8.2194623 6.3243148 6.5935243
-2.2868616 -3.0488253 3.8125242 -4.1972870
-9.3245056 7.1580190 -9.3394750 -10.8637146
-1.8658791 -2.9399335 3.9806319 -3.4571544
-0.5948046 -9.2472989 4.7822956 -6.4200413
9.5010299 1.3009261 2.3291740 15.2239823
9.2577211 -1.1724114 -7.8018008 9.0692049
2.6997947 3.0014772 -7.2529363 3.4350129
3.9189087 -5.5451968 -5.8822270 -1.1766312
3.8944299 1.8712891 4.3803169 8.6075726
-6.4150749 -3.0047086 -6.7697600 -13.9478279
-6.7779545 -1.7294907 -5.8725987 -13.0960297
-4.0058067 9.7489628 7.0665074 4.8663424
2.2816304 8.3233028 2.4152985 10.7673301
1.1918223 1.3983355 -3.2920161 1.5408987
-2.1305815 8.4520649 -1.7210499 3.1272673
-1.3075094 -4.0292579 -3.3918484 -6.3380357
-4.7654955 8.0225314 8.4669152 2.9518118
4.9065808 -3.8521690 -4.8520427 1.9505482
-8.5401213 7.9337571 2.2397343 -4.7612256
-2.0895614 8.5600607 1.7817653 4.5972191
5.0596299 -5.1508388 4.1137440 4.5202288
7.1544969 -4.4842411 -0.9821920 6.0570559
-5.4717009 7.6183506 7.5414685 1.2894157
-4.7241129 0.5164908 3.5204327 -4.8677686
3.1476533 1.2271448 -7.0779171 2.7088093
-9.0451153 -3.4362399 -1.5974352 -16.0169246
2.1087750 -0.4594392 8.7035852 5.8798148
9.7665434 3.3801572 0.6635720 16.6285076
5.4107405 0.4476992 7.1626718 10.6449044
-4.6078256 -5.0164556 -7.9277732 -13.4654875
-9.8404780 7.8843245 1.4201390 -6.9315607
-7.4182248 3.8254389 -7.6971294 -10.2392116
-0.4252561 -9.1329654 -3.4635303 -9.2129851
7.9847556 0.3714423 -6.1456722 9.1491282
2.6059451 5.6873802 -2.5891195 7.2180153
-0.5476474 1.7121023 7.1828702 3.3223307
-7.4867812 -5.1113230 -9.1417853 -18.0315308
-4.4372467 -1.3432539 -3.9122666 -8.7678893
8.5780078 -7.0323660 2.2187683 7.2233193
1.3314706 6.4592102 -7.1712971 4.3164533
4.7459343 -2.8845700 -7.2727916 1.5832535
-7.7040252 4.6767773 -0.7705813 -7.3359470
7.1694336 7.2863830 0.5753003 16.0841157
1.8981119 -6.1937083 1.6470056 -1.6740719
2.5600889 6.7916577 9.2768472 12.5295624
1.1075447 -1.3951176 6.1232886 2.7526778
8.4539575 2.1896789 8.8876367 16.9520446
-4.7781708 -2.7900758 -4.0331073 -10.4483895
-4.8125019 -3.4548784 -2.2422741 -10.3503055
-8.3071586 -5.5435543 0.8407951 -15.7465498
-2.5802678 7.7003601 -4.0675318 1.0079907
-6.3286565 6.5762714 -6.8485734 -6.1918961
3.4149702 -7.2853628 7.1595052 1.6631775
-6.1019440 -0.8496141 -6.3377681 -11.6218217
-1.8684506 3.1204656 -9.6256686 -3.7636300
-5.3601860 -0.9847551 1.5889113 -7.6905202
0.0886939 3.8629287 6.0199250 5.4935914
-2.0750988 6.4310881 6.6239022 4.7474683
-9.3466092 5.8293946 9.7715317 -4.7223434
3.0225021 4.2151124 7.9437278 10.6110004
1.3816173 -4.3884044 5.0652648 0.3411939
9.1852659 -6.9401872 6.0943534 9.6144773
