-8.8680579 3.8028256 3.7893409 -16.4519631
6.7773132 -4.5577721 1.3005230 2.6505017
-6.8087793 -2.5753717 5.6156622 -26.1187909
6.8037739 2.8649309 -8.8100553 32.1149037
-0.3455763 2.3225128 -8.0241863 17.0148309
2.6858356 -7.1111429 5.0130570 -15.2402815
0.8797228 -0.6876782 1.7476342 -2.5486864
4.7075742 -0.5066111 4.8881761 -0.8172503
9.6592716 7.3110030 1.4867251 26.5050323
-5.9062780 -6.4508786 -8.4374276 -6.3149423
-0.0798217 -4.0290538 -7.1169385 5.7567339
-4.2077479 -4.6997054 7.8014780 -28.6279547
2.9137235 -5.7203015 -1.6156797 -1.1048004
-7.8423541 6.5687444 -8.9676461 11.9513730
-6.1516219 -2.3485618 -1.3675769 -12.4580626
3.7508454 -5.6977554 -0.5021772 -1.4936793
-7.0138142 -2.0128741 3.8891714 -22.5926360
-6.6032956 8.6850023 -6.9710714 14.1039113
-9.2970417 1.8911364 5.5886559 -23.4043980
-5.2710860 7.8652502 -1.7179084 6.0767778
-7.2891609 1.4248248 -6.0681225 -0.3134211
9.1687236 1.6678478 -9.8004721 36.1747156
-0.7030732 2.0983039 -9.3994987 18.3985781
-8.0844062 -5.1320998 -3.3292329 -16.9875345
5.9588266 9.3139370 -9.4800628 42.0747781
-0.7721026 2.3067187 -8.2104952 16.5450332
5.0527048 -9.3078542 -0.9705800 -4.1138769
-6.7950459 -7.8168584 0.8107173 -26.1445379
-2.3865051 -9.1748710 0.1863218 -19.2987452
7.6919900 3.1017195 -0.0877148 18.9605062
-6.2872426 -9.5009655 6.4725484 -37.7475533
-3.6757329 8.4409865 5.4694796 -2.5995276
4.8696302 5.8469436 9.9758723 0.8136926
-7.7808132 -6.6563225 6.1548616 -35.3334091
9.2882608 -0.5207801 -9.8742267 33.0160319
-4.8632936 -5.1024319 -8.9241284 -1.4356972
9.5674154 6.5010512 5.1915254 18.6164548
-4.1372848 5.7303695 8.0478294 -12.2403867
-6.3266575 -7.1155062 2.9589159 -27.9061011
-9.6920649 -3.1535756 -5.7065234 -12.5914132
1.7542631 5.1065762 -7.1616785 23.7527122
4.6513677 8.7303844 4.6085073 14.3459572
1.6668208 -3.8981818 6.4658568 -14.4541761
5.9567261 -0.5107930 -6.3941095 20.9977292
2.3404814 -5.8351174 -6.3473689 5.8884813
2.8310559 -2.9375551 -8.1125325 14.4699285
8.4589851 -0.5935048 -8.4219438 28.8874672
-0.6876262 6.3668237 4.4040019 1.3088596
-9.5178711 9.4134917 -7.3212695 10.6308035
8.9603720 6.5432249 -2.8181941 31.4870043
0.8009980 -7.7610649 -9.2588924 5.0869837
-7.8846261 1.4994493 -7.7911978 1.7234371
9.1016525 0.7404814 8.4437470 2.9190175
-8.1816241 6.1084639 0.8098520 -6.3583618
-1.9079317 5.1489612 -4.2892845 12.2453732
2.1330061 0.7172125 -1.7275224 7.9839623
-0.4206101 -1.4408024 7.5761635 -16.2059725
9.6132950 3.4892902 -7.4619658 35.8322687
-0.7278206 9.9825454 8.1570920 0.5105747
0.0039978 -4.6153144 -0.8762697 -5.8571009
-9.5272879 4.9840287 -1.2335600 -7.0346171
3.1469839 9.5284325 9.5344137 4.3691806
-7.8092908 -9.3494200 -4.1684816 -21.7840594
6.9274155 -7.3874101 -1.2563356 2.8290595
-9.1277581 -1.9267215 4.7395411 -27.7351640
5.2818259 8.6657993 5.3706987 14.0551499
8.8477531 -5.9679998 2.1585891 2.6323040
4.6072451 -7.4428490 -6.0523901 6.8845382
-3.4792928 -5.3907755 0.8066488 -16.2873913
0.1972302 -4.5916196 8.8909782 -22.4161883
-9.2185461 -6.8455933 -5.5199712 -17.9699496
9.3092840 -1.7956315 -4.5135789 21.7141329
-6.2501669 4.2883180 -9.8054331 12.6220718
-8.6816387 -6.6700059 4.8696063 -34.7470491
-0.1666405 8.7760084 -7.0323120 25.9417444
-9.7091036 8.0532475 -9.9701981 12.7057173
-5.8372535 -5.6439199 -8.7808099 -4.3038435
-9.6365259 0.3799430 -5.0266636 -8.0172752
-4.1661838 4.2863452 -1.9338775 2.7140302
-5.2145461 -7.7754021 -9.9034150 -4.6457781
0.3231595 1.4347458 5.5628985 -6.7735752
9.9854465 -7.5736384 -7.6177810 19.0717733
5.9664243 -9.5371469 9.0988995 -20.3051970
7.0078945 -2.3103381 5.0593714 0.1403632
2.5555119 6.4079996 -7.2227256 27.3831457
-0.1105576 8.6763761 4.8432912 5.2807611
1.6394454 0.6386508 5.4666875 -5.5110999
4.5351138 4.8002527 2.3555183 11.7571123
-2.2359084 0.8355404 4.6611052 -10.7741399
-3.9959686 9.7798395 9.0190975 -7.1918808
8.8560550 7.3320156 0.9522634 26.0200793
-0.3994219 -4.8397356 -5.1011230 0.3872029
-8.9867561 8.4271871 6.3187130 -13.6547501
9.4488167 0.3009998 3.6859385 11.0948789
-5.0191765 -7.6251860 -8.0643785 -7.2442397
6.7006529 9.0618452 -8.3503613 41.0468435
-8.0775741 7.6476094 -3.6331847 3.9996120
3.2430560 1.1059193 -2.6123995 12.1391217
-4.8172420 0.0249700 5.1845916 -17.6256293
9.2570550 -3.8190816 9.4555680 -5.8519276
-6.2177486 -4.8045153 6.9572885 -30.9491002
-9.7592342 -2.7396233 -3.5211613 -15.8412935
-5.2165298 -1.7425411 -9.4005735 4.1308687
-3.5669672 8.8689929 2.1441912 4.0499740
-4.9923428 1.6400933 4.0810727 -13.4421616
7.2646037 -1.3611513 -7.0346031 23.1025032
-8.9266297 -8.8287962 -7.2410364 -17.6318159
7.6246915 4.4203547 6.2022662 10.0369425
4.1267994 0.7814973 -8.1679568 22.8489042
0.1399125 8.4130103 3.0523652 8.4172297
0.2667785 1.9292702 5.3411583 -5.6991334
9.3629196 -7.0141637 7.8136583 -7.9250176
-7.1852317 0.6175690 0.0159423 -11.9729644
-8.5994441 -4.7584010 -3.5047665 -17.0121582
-7.2811364 -5.4519697 8.2548541 -36.1502215
2.7434696 -6.1469322 -3.7685393 1.6410456
9.0206994 -5.5546164 9.9149155 -9.8511274
-9.6520631 -4.1068151 -6.8105928 -12.1291861
-8.1059751 5.4317906 9.0083553 -21.5281344
1.0332094 -3.3596888 0.9790410 -5.2142253
3.7323727 8.7653622 2.5668358 16.2897472
5.7260356 9.4910567 -3.0809686 30.8376071
-9.6420216 3.3111726 7.8450852 -25.6678950
-7.7115548 -9.3658571 -0.7070347 -27.6395631
-6.5421392 -8.8923721 -1.4705891 -23.4523781
-9.5293674 -8.2949391 1.2311520 -32.5606414
0.4474318 -0.8343753 -9.4075057 15.7910914
4.4681257 4.9127522 -6.4843793 27.1525264
9.6721838 -7.4569546 4.7001620 -2.6753241
8.5046051 -1.4556861 -2.9830503 18.1543691
-7.4981311 3.0972792 -4.7101608 -0.3695150
0.6470321 -2.5147748 -0.0448302 -2.7812078
-1.4123356 5.0286019 -5.5122328 15.0665167
6.2979346 7.8241098 8.2689281 9.5094172
5.0783880 -3.7588688 4.5081219 -4.6940565
