7.8766731 9.5693881 -1.6207616 31.1851116
-5.6247395 2.6802618 -2.3436129 -7.3164323
9.3278575 -7.8585815 -8.2377482 -1.5329384
-5.2680436 -2.6809811 4.3835699 -12.1156299
5.9709916 9.6607109 9.2807775 34.4916449
-3.8174471 6.9068858 -4.8105403 2.1949482
-3.0055534 9.2220505 -8.3385169 5.7162050
9.9834623 0.6951611 -6.7363620 16.0408567
-3.6429936 -7.9688643 3.5877788 -19.0399067
6.5210032 3.3635701 -6.3345424 14.5145959
-0.9387361 -9.9241330 -2.1603076 -20.9872199
-1.6338891 6.1847965 8.6989481 13.4247781
8.6376462 5.6634334 9.0540709 32.2225480
7.1185145 -4.4787611 -8.4682320 0.2100022
8.5319562 7.5864211 7.6774827 34.6291259
-1.8246046 0.9155521 0.2127345 -1.6867816
6.8861837 5.8021382 -4.1309638 20.9648873
-0.6583695 -8.3896080 -6.8071262 -20.5751079
-8.7982095 -5.8461302 -9.6991053 -33.2566300
-1.7443810 8.6529875 6.1255277 16.0611242
-3.9338387 1.3125061 9.8684344 1.0102612
9.4710863 -7.4889186 -3.7358599 2.1974091
-4.5624954 -5.8105021 -8.9270485 -24.6656847
4.5211641 7.5741027 5.0780005 25.3738167
0.9536751 8.9494856 -6.9836822 13.5886160
-3.2744316 2.7439643 6.8695327 2.9793419
2.0920249 5.0241992 -6.7274610 8.8449163
-4.8644418 5.7130943 -9.6561618 -4.9492265
-2.0066116 3.8191276 6.0205970 6.7968428
2.8563618 -8.2411717 -7.5255042 -14.0755904
3.4116123 2.2491822 5.4822013 13.9315641
0.9340396 -8.3938429 -7.0649656 -17.7171083
-5.0184473 7.1434906 -1.4193101 2.4427410
-3.8655400 -3.2527365 1.7351871 -12.1230002
-4.2499957 7.4886304 0.0538042 5.4379211
-6.4245980 -8.7045424 0.3363438 -27.6662562
1.7337297 -1.6044911 -9.5360179 -5.5098213
-1.8969641 -4.8065926 5.4826297 -8.8548601
-3.0536661 -8.0332083 -7.9848699 -25.2152843
-9.1251521 -8.1778395 6.3035507 -28.1473899
-2.5786007 -6.0785336 4.9950375 -12.7419492
-8.3547654 4.5241475 -5.0573088 -10.8679723
-9.4138481 4.1646614 -8.9808459 -15.9613345
2.2260154 9.0212368 -1.5223211 19.5232590
6.4759128 -5.2056507 -7.1544477 -1.5043149
4.2705994 2.8372006 0.1047280 13.2860697
-8.9425723 -8.8309167 -6.7368868 -37.0658747
9.9900503 -5.9671114 1.8934900 9.4149523
1.0151757 1.8445335 2.0878166 6.5442050
9.1593272 -8.3963619 6.1517546 6.1056111
-9.3513253 -9.7358733 -4.0437195 -37.8006772
8.7357356 6.2658277 -5.1859628 24.6591914
5.0042490 -0.0723602 -8.0219713 4.4012644
6.4527134 5.2385517 1.0955176 22.3691707
-9.0882564 4.9843003 7.6925221 -3.5237655
5.1534080 7.6821218 -6.8882384 19.3460638
9.7538964 -2.9044292 4.3057800 15.9755913
9.5553858 9.8124857 4.4351708 38.5691377
-4.8325898 1.6366884 -4.3020931 -8.9047549
9.5636542 -0.6668134 0.4776699 17.2670090
7.3467140 8.4252900 2.5737263 30.7209316
-8.4591737 9.1640883 -3.1854777 -1.5532340
-3.2460573 -6.6870305 -7.6124029 -22.9266416
-0.5490351 -6.6706443 0.5696906 -12.6969097
7.3445669 -1.1271883 4.8935474 14.9615298
-0.5665229 5.5877925 1.9748860 10.2067856
-8.8752380 -5.4660479 -7.7609778 -31.5164872
-1.6899647 -1.4649606 1.0504962 -5.1961695
0.2397143 5.5839447 -0.6003669 10.1341102
6.6957911 -7.4044304 -5.9439478 -4.2933963
1.9144378 5.1633617 2.6748653 14.5908790
-2.3160544 -0.3775645 5.4978787 -1.6694210
0.7094766 -0.2967068 6.7500253 5.0014213
-9.1936324 7.5661332 1.1931640 -3.1086631
-7.8791523 8.0587652 -6.3587764 -4.4093823
-4.2640806 -9.7015130 4.4558964 -22.8001887
0.9808195 5.6875626 -0.6895583 11.6733911
9.4056120 -9.3704435 -6.6056712 -3.0940711
-4.8621367 7.3625315 -6.1169069 0.2197742
5.3606473 -5.7342544 -2.0947726 -1.4359543
-6.2755412 9.4055575 -7.5691665 0.3108198
1.7016038 5.7868403 -2.3109645 12.2157155
3.3777934 -2.3514663 -2.9517685 0.3539905
-0.8821417 -2.0317843 -0.5568039 -5.6787033
-2.2213291 -1.1503198 3.6527817 -4.0250383
-8.6741356 2.3948749 -7.6321166 -16.9047903
1.5612837 9.6508549 8.6303586 25.6919612
3.9396292 8.7920609 8.8664381 28.8114440
-8.2111462 -8.9016258 -7.6911985 -36.3954642
-1.8685542 -4.0361642 -7.0961676 -15.2175714
-8.5460074 -0.3931455 -9.8070763 -23.0290552
-6.0475011 -9.0715867 8.8203393 -22.3472673
6.2674026 0.4536348 -4.8394470 9.7223780
5.6353972 -4.3586140 -5.7623738 -0.7130328
4.9611520 -7.7498754 0.7638718 -4.0497066
-5.5573722 -7.2609290 0.8365862 -23.1096895
-4.1433013 -8.6808318 -9.5282982 -29.4088043
-3.9714445 -7.8572615 -1.4982723 -22.6182929
6.1873783 -8.5081148 -9.6905945 -9.5703057
7.1630331 -9.0629856 -7.9813200 -7.6549528
8.2318393 -2.4588602 4.3939031 13.9403754
5.2730134 4.2861391 9.7832351 23.8029647
3.9657177 -1.9144024 5.8837584 7.7390245
-5.3782321 7.3547192 2.2892898 4.4400518
-3.4001031 -3.8028362 -8.1856955 -18.3834303
-9.9371947 -9.6584803 -7.6301691 -40.9994339
5.2210811 8.2416794 -1.5877777 23.7700734
5.3741482 -6.8906381 0.1112869 -2.1232284
6.1676962 5.7447600 7.1104546 26.4702768
-7.5544104 -0.5508269 1.0361906 -14.7020504
-3.5809677 5.2983674 7.2845474 7.2523102
-7.2636852 5.4085682 8.1166568 0.9697208
8.1521475 -3.4096840 -8.0303889 4.3698666
-5.3157956 -2.5576797 1.2557446 -13.9248136
0.1337931 -3.1726768 -4.8080534 -8.4393655
-2.4723891 8.7777654 -9.0877110 5.4647293
3.4289320 1.9711585 -6.7844769 5.8541954
4.6870399 -9.6227844 -4.0872839 -10.9512491
-4.1456244 5.1675677 6.8515167 5.6753851
-2.6037656 -4.3963280 5.4632822 -9.4713091
-0.6287236 -9.2664307 -8.7068429 -23.2755816
-7.9650876 -0.7861487 -8.7770774 -21.9937367
0.0008050 -7.5499391 -2.3145184 -15.0242099
-4.7285112 3.0467742 0.6311728 -3.1084194
2.8243468 -5.4023971 3.2915894 -2.3160649
-8.7759714 -8.0459475 -3.6389966 -33.4145617
9.5740027 0.6015256 5.5263338 22.7017021
7.7733455 -4.0698630 -8.5420805 2.1443845
-3.9657178 6.9335232 4.1135565 7.4973896
3.4343788 -2.3335472 -6.7600470 -1.8687701
-6.5448336 -4.8087967 5.0348159 -17.9675880
3.7050238 -1.9434671 -7.0499885 -0.8322706
-0.9826350 1.1000107 6.6781097 4.2558865
9.9406339 -1.0261024 -1.4277844 16.1544709
-7.2778651 -1.0936089 7.8473598 -10.9282026
3.6638528 -7.1236632 8.9119080 -0.3326264
7.1933359 4.1281365 8.8615826 26.5954107
-5.8350836 0.9697971 8.4169371 -4.1194405
-0.4822401 3.8325711 -2.8373093 4.2222008
